id,name,difficulty,weather,area
1,Skyrim,10,Cloudy,92922
2,Oblivion,4,Foggy,11438
3,Morrowind,8,Rainy,51196
4,Gludio,4,Cloudy,21431
5,Konoha,9,Cloudy,25105
6,Moscow,5,Windy,27553
7,Azeroth,3,Sunny,69211
8,Timeria,3,Windy,70473
9,Dawnstar,9,Sunny,41686
10,Windpeak,4,Foggy,32293
11,Falkreath,10,Foggy,52513
12,Markarth,5,Snowy,70872
13,Morthal,6,Sunny,23286
14,Rifter,5,Snowy,29229
15,Solitude,3,Windy,56847
16,Talking Island,10,Snowy,49128
17,Whiterun,1,Windy,42846
18,Windhelm,10,Cloudy,72681
19,Arizona,7,Sunny,12025
20,Ajo,5,Rainy,18814
21,Avondale,6,Rainy,40186
22,Bisbee,5,Cloudy,95197
23,Casa Grande,3,Rainy,75547
24,Chandler,4,Rainy,48685
25,Clifton,5,Rainy,32849
26,Douglas,4,Snowy,95794
27,Flagstaff,7,Rainy,47048
28,Florence,6,Cloudy,83579
29,Gila Bend,3,Sunny,70054
30,Glendale,5,Sunny,64834
31,Globe,7,Snowy,72502
32,Kingman,2,Foggy,62255
33,Lake Havasu City,5,Foggy,71504
34,Mesa,1,Sunny,34651
35,Nogales,4,Windy,34702
36,Oraibi,6,Windy,41818
37,Phoenix,9,Foggy,18710
38,Prescott,9,Foggy,45444
39,Scottsdale,10,Sunny,94940
40,Sierra Vista,3,Cloudy,39088
41,Tempe,5,Windy,86536
42,Tombstone,5,Sunny,30247
43,Tucson,7,Foggy,14734
44,Walpi,2,Windy,25960
45,Window Rock,10,Rainy,75218
46,Winslow,6,Rainy,75020
47,Yuma,8,Cloudy,44261
48,Arkansas,3,Windy,33745
49,Arkadelphia,10,Sunny,59941
50,Arkansas Post,2,Snowy,96652
51,Batesville,7,Snowy,92830
52,Benton,7,Cloudy,12966
53,Blytheville,8,Foggy,78408
54,Camden,8,Sunny,41489
55,Conway,1,Snowy,47518
56,Crossett,3,Rainy,43467
57,El Dorado,7,Rainy,73733
58,Fayetteville,2,Foggy,38258
59,Forrest City,6,Snowy,55160
60,Fort Smith,1,Sunny,60138
61,Harrison,5,Snowy,47554
62,Helena,9,Rainy,50696
63,Hope,5,Foggy,64139
64,Hot Springs,10,Snowy,75773
65,Jacksonville,4,Sunny,20697
66,Jonesboro,10,Sunny,44779
67,Little Rock,7,Rainy,36229
68,Magnolia,10,Foggy,36412
69,Morrilton,5,Windy,60051
70,Newport,9,Cloudy,25492
71,North Little Rock,7,Cloudy,79996
72,Osceola,4,Rainy,48558
73,Pine Bluff,9,Windy,75061
74,Rogers,8,Cloudy,80488
75,Searcy,9,Rainy,17635
76,Stuttgart,3,Rainy,61274
77,Van Buren,8,Windy,62826
78,West Memphis,2,Cloudy,83608
79,California,1,Sunny,26887
80,Alameda,9,Rainy,92264
81,Alhambra,5,Windy,32550
82,Anaheim,3,Windy,17558
83,Antioch,2,Rainy,61559
84,Arcadia,5,Foggy,53373
85,Bakersfield,3,Foggy,52031
86,Barstow,3,Cloudy,60070
87,Belmont,9,Snowy,14884
88,Berkeley,2,Foggy,35431
89,Beverly Hills,2,Windy,27466
90,Brea,2,Snowy,54194
91,Buena Park,8,Snowy,16322
92,Burbank,4,Cloudy,17635
93,Calexico,9,Sunny,96596
94,Calistoga,3,Snowy,69526
95,Carlsbad,6,Windy,64223
96,Carmel,5,Snowy,30007
97,Chico,1,Foggy,78807
98,Chula Vista,10,Cloudy,15967
99,Claremont,2,Foggy,99555
100,Compton,5,Sunny,90263
